%!PS-Adobe-3.0 EPSF-3.0
%%Creator: cairo 1.14.10 (http://cairographics.org)
%%CreationDate: Sun Jul 16 04:02:05 2017
%%Pages: 1
%%DocumentData: Clean7Bit
%%LanguageLevel: 2
%%BoundingBox: 0 -1 53 13
%%EndComments
%%BeginProlog
save
50 dict begin
/q { gsave } bind def
/Q { grestore } bind def
/cm { 6 array astore concat } bind def
/w { setlinewidth } bind def
/J { setlinecap } bind def
/j { setlinejoin } bind def
/M { setmiterlimit } bind def
/d { setdash } bind def
/m { moveto } bind def
/l { lineto } bind def
/c { curveto } bind def
/h { closepath } bind def
/re { exch dup neg 3 1 roll 5 3 roll moveto 0 rlineto
      0 exch rlineto 0 rlineto closepath } bind def
/S { stroke } bind def
/f { fill } bind def
/f* { eofill } bind def
/n { newpath } bind def
/W { clip } bind def
/W* { eoclip } bind def
/BT { } bind def
/ET { } bind def
/pdfmark where { pop globaldict /?pdfmark /exec load put }
    { globaldict begin /?pdfmark /pop load def /pdfmark
    /cleartomark load def end } ifelse
/BDC { mark 3 1 roll /BDC pdfmark } bind def
/EMC { mark /EMC pdfmark } bind def
/cairo_store_point { /cairo_point_y exch def /cairo_point_x exch def } def
/Tj { show currentpoint cairo_store_point } bind def
/TJ {
  {
    dup
    type /stringtype eq
    { show } { -0.001 mul 0 cairo_font_matrix dtransform rmoveto } ifelse
  } forall
  currentpoint cairo_store_point
} bind def
/cairo_selectfont { cairo_font_matrix aload pop pop pop 0 0 6 array astore
    cairo_font exch selectfont cairo_point_x cairo_point_y moveto } bind def
/Tf { pop /cairo_font exch def /cairo_font_matrix where
      { pop cairo_selectfont } if } bind def
/Td { matrix translate cairo_font_matrix matrix concatmatrix dup
      /cairo_font_matrix exch def dup 4 get exch 5 get cairo_store_point
      /cairo_font where { pop cairo_selectfont } if } bind def
/Tm { 2 copy 8 2 roll 6 array astore /cairo_font_matrix exch def
      cairo_store_point /cairo_font where { pop cairo_selectfont } if } bind def
/g { setgray } bind def
/rg { setrgbcolor } bind def
/d1 { setcachedevice } bind def
/cairo_flush_ascii85_file { cairo_ascii85_file status { cairo_ascii85_file flushfile } if } def
/cairo_image { image cairo_flush_ascii85_file } def
/cairo_imagemask { imagemask cairo_flush_ascii85_file } def
%%EndProlog
%%BeginSetup
%%EndSetup
%%Page: 1 1
%%BeginPageSetup
%%PageBoundingBox: 0 -1 53 13
%%EndPageSetup
q 0 -1 53 14 rectclip q
0 g
52.504 12.182 m 52.41 12.623 l 51.223 12.131 l 51.031 12.088 l 47.812 11.334
 44.508 10.873 41.203 10.717 c 37.758 10.557 34.277 10.725 30.855 11.221
 c 30.473 11.28 l 30.473 11.28 30.414 11.299 30.402 11.287 c 30.379 11.272
 l 29.836 10.799 28.465 9.822 26.5 9.787 c 24.367 9.748 22.875 10.846 22.336
 11.319 c 21.883 11.221 l 18.461 10.733 14.98 10.565 11.531 10.717 c 8.262
 10.862 4.984 11.303 1.789 12.022 c 0.328 12.623 l 0.234 12.182 l -0.172
 10.283 -0.051 8.393 0.59 6.721 c 2.309 2.205 7.066 0.756 9.035 0.342 c 
10.047 0.127 11.039 0.022 11.996 0.022 c 14.777 0.022 17.281 0.908 19.23
 2.615 c 21.188 4.326 22.113 6.44 22.559 8.123 c 23.43 7.662 24.672 7.209
 26.176 7.209 c 26.285 7.209 26.398 7.213 26.512 7.217 c 27.348 7.256 28.172
 7.432 28.961 7.748 c 28.684 8.444 l 27.973 8.162 27.23 8.002 26.477 7.967
 c 24.879 7.897 23.586 8.408 22.734 8.885 c 22.816 9.303 22.867 9.678 22.902
 9.998 c 23.727 9.514 24.914 9.033 26.387 9.033 c 26.43 9.033 26.473 9.033
 26.516 9.037 c 27.906 9.061 29.031 9.51 29.828 9.971 c 29.977 8.268 30.637
 4.971 33.449 2.518 c 34.863 1.28 37.137 -0.002 40.477 -0.002 c 41.469 -0.002
 42.559 0.112 43.746 0.373 c 47.891 1.283 50.953 3.596 52.148 6.721 c 52.789
 8.389 52.914 10.28 52.504 12.182 c h
2.012 11.205 m 5.129 10.526 8.32 10.112 11.5 9.971 c 14.828 9.819 18.191
 9.971 21.496 10.412 c 21.27 9.018 20.543 6.44 18.223 4.533 c 15 1.881 11.16
 2.533 9.898 2.752 c 6.176 3.381 3.629 5.033 2.543 7.53 c 2.059 8.631 1.879
 9.893 2.012 11.205 c h
18.738 3.178 m 16.293 1.041 12.902 0.295 9.188 1.072 c 7.344 1.463 2.879
 2.819 1.289 6.987 c 0.754 8.393 0.613 9.975 0.883 11.584 c 1.297 11.412
 l 1.121 9.928 1.305 8.487 1.855 7.229 c 3.051 4.49 5.789 2.686 9.773 2.01
 c 10.285 1.924 11.195 1.768 12.32 1.768 c 14.148 1.768 16.539 2.178 18.699
 3.955 c 20.84 5.713 21.727 7.994 22.09 9.557 c 21.844 7.905 21.082 5.229
 18.738 3.178 c h
41.238 9.971 m 44.445 10.119 47.656 10.553 50.789 11.264 c 50.906 9.932
 50.703 8.651 50.199 7.533 c 49.074 5.03 46.527 3.377 42.84 2.752 c 41.578
 2.533 37.738 1.881 34.516 4.533 c 32.195 6.44 31.469 9.014 31.242 10.412
 c 34.551 9.959 37.91 9.807 41.238 9.971 c h
51.449 6.987 m 49.879 2.897 45.426 1.51 43.582 1.108 c 38.707 0.033 35.648
 1.588 33.941 3.084 c 31.461 5.248 30.777 8.139 30.598 9.783 c 30.93 8.221
 31.789 5.803 34.039 3.955 c 36.199 2.178 38.59 1.768 40.418 1.768 c 41.543
 1.768 42.453 1.924 42.965 2.01 c 46.91 2.682 49.648 4.483 50.883 7.225 
c 51.453 8.49 51.656 9.944 51.512 11.44 c 51.855 11.584 l 52.125 9.971 51.988
 8.393 51.449 6.987 c h
51.449 6.987 m f*
15.344 7.971 m 15 8.639 l 8.777 5.463 l 9.117 4.795 l 15.344 7.971 l f*
45.344 7.971 m 45 8.639 l 38.777 5.463 l 39.117 4.795 l 45.344 7.971 l f*
Q Q
showpage
%%Trailer
end restore
%%EOF
