%!PS-Adobe-3.0 EPSF-3.0
%%Creator: cairo 1.14.10 (http://cairographics.org)
%%CreationDate: Sun Jul 16 02:28:48 2017
%%Pages: 1
%%DocumentData: Clean7Bit
%%LanguageLevel: 2
%%BoundingBox: 8 8 1737 586
%%EndComments
%%BeginProlog
save
50 dict begin
/q { gsave } bind def
/Q { grestore } bind def
/cm { 6 array astore concat } bind def
/w { setlinewidth } bind def
/J { setlinecap } bind def
/j { setlinejoin } bind def
/M { setmiterlimit } bind def
/d { setdash } bind def
/m { moveto } bind def
/l { lineto } bind def
/c { curveto } bind def
/h { closepath } bind def
/re { exch dup neg 3 1 roll 5 3 roll moveto 0 rlineto
      0 exch rlineto 0 rlineto closepath } bind def
/S { stroke } bind def
/f { fill } bind def
/f* { eofill } bind def
/n { newpath } bind def
/W { clip } bind def
/W* { eoclip } bind def
/BT { } bind def
/ET { } bind def
/pdfmark where { pop globaldict /?pdfmark /exec load put }
    { globaldict begin /?pdfmark /pop load def /pdfmark
    /cleartomark load def end } ifelse
/BDC { mark 3 1 roll /BDC pdfmark } bind def
/EMC { mark /EMC pdfmark } bind def
/cairo_store_point { /cairo_point_y exch def /cairo_point_x exch def } def
/Tj { show currentpoint cairo_store_point } bind def
/TJ {
  {
    dup
    type /stringtype eq
    { show } { -0.001 mul 0 cairo_font_matrix dtransform rmoveto } ifelse
  } forall
  currentpoint cairo_store_point
} bind def
/cairo_selectfont { cairo_font_matrix aload pop pop pop 0 0 6 array astore
    cairo_font exch selectfont cairo_point_x cairo_point_y moveto } bind def
/Tf { pop /cairo_font exch def /cairo_font_matrix where
      { pop cairo_selectfont } if } bind def
/Td { matrix translate cairo_font_matrix matrix concatmatrix dup
      /cairo_font_matrix exch def dup 4 get exch 5 get cairo_store_point
      /cairo_font where { pop cairo_selectfont } if } bind def
/Tm { 2 copy 8 2 roll 6 array astore /cairo_font_matrix exch def
      cairo_store_point /cairo_font where { pop cairo_selectfont } if } bind def
/g { setgray } bind def
/rg { setrgbcolor } bind def
/d1 { setcachedevice } bind def
/cairo_flush_ascii85_file { cairo_ascii85_file status { cairo_ascii85_file flushfile } if } def
/cairo_image { image cairo_flush_ascii85_file } def
/cairo_imagemask { imagemask cairo_flush_ascii85_file } def
%%EndProlog
%%BeginSetup
%%EndSetup
%%Page: 1 1
%%BeginPageSetup
%%PageBoundingBox: 8 8 1737 586
%%EndPageSetup
q 8 8 1729 578 rectclip q
0 g
868.051 586 m 873.449 542.941 879.254 499.941 884.773 456.898 c 888.625
 428.621 892.445 400.301 894.676 371.852 c 885.426 376.719 876.734 383.316
 866.324 385.477 c 866.227 380.566 867.18 375.73 867.949 370.898 c 874.75
 330.75 881.191 290.512 885.949 250.051 c 886.578 244.328 887.59 238.629
 887.699 232.852 c 886.578 233.27 885.379 233.551 884.602 234.5 c 878.738
 240.531 873.09 246.762 867.199 252.75 c 878.57 182.281 890.789 111.91 901.949
 41.398 c 904.77 30.789 905.199 19.762 907.5 9.051 c 909.469 15.891 909.641
 23.09 910.75 30.102 c 914.781 73.34 917.148 116.727 920.449 160.023 c 924.141
 152.324 928.211 144.824 932.102 137.227 c 934.621 132.645 936.648 127.785
 939.648 123.477 c 940.539 123.316 941.441 123.156 942.352 122.977 c 942.422
 142.316 942.609 161.645 942.602 180.977 c 943.059 191.996 942.191 203.035
 943.199 214.023 c 943.238 235.406 943.262 256.77 943.551 278.148 c 950.738
 263.762 957.785 249.32 965.023 234.949 c 966.125 236.41 968.227 237.641
 967.773 239.75 c 965.535 276.512 962.863 313.262 961.125 350.051 c 960.305
 357.441 960.477 364.906 960.227 372.324 c 961.945 371.695 962.773 369.988
 963.727 368.551 c 972.637 354.129 981.609 339.75 990.301 325.199 c 991.539
 323.309 994.172 323.859 996.102 323.852 c 1006.078 324.801 1015.785 327.637
 1025.227 330.926 c 1039.355 336.047 1053.398 342.762 1063.852 353.852 c
 1071.309 352.398 1078.629 349.879 1085.602 346.801 c 1085.762 322.219 1085.324
 297.629 1085.477 273.051 c 1086.043 259.23 1084.363 245.059 1088.324 231.602
 c 1091.355 221.961 1099.309 215.145 1106.5 208.523 c 1119.309 197.305 1132.746
 186.82 1146.176 176.352 c 1151.996 171.641 1159.984 172.375 1166.977 172.773
 c 1175.344 173.406 1182.766 177.578 1190.273 180.949 c 1197.344 184.211
 1204.289 187.77 1211.102 191.551 c 1220.148 196.551 1227.898 203.93 1233.199
 212.801 c 1236.559 218.238 1237.355 224.703 1238.426 230.875 c 1240.426
 244.137 1241.34 257.539 1241.25 270.949 c 1241.719 295.148 1237.551 319.105
 1235.25 343.125 c 1234.773 343.875 l 1234.613 348.613 1233.73 353.285 1233.102
 357.977 c 1232.148 364.254 1231.48 370.715 1228.75 376.523 c 1226.27 382.066
 1222.359 386.855 1217.949 390.977 c 1206.219 401.816 1193.434 411.695 1179.227
 419.074 c 1173.215 422.516 1166.262 419.484 1160.398 417.273 c 1139.941
 408.605 1121.035 396.719 1102.375 384.75 c 1097.984 382.109 1094.297 378.023
 1093.023 372.977 c 1091.945 368.715 1089.766 364.863 1087.227 361.324 c
 1080.336 362.016 1074.102 365.238 1067.5 367.102 c 1070.059 400.781 1073.59
 434.375 1076 468.074 c 1076.352 474.477 1077.965 481.309 1075.176 487.398
 c 1072.203 494.52 1066.961 500.297 1062.301 506.324 c 1045.051 527.496 
1027.906 548.762 1010.023 569.398 c 1006.215 569.961 1002.469 569.02 998.949
 567.648 c 987.352 563.449 975.809 559.016 964.102 555.125 c 962.449 554.555
 960.699 554.363 959 554.125 c 957.27 564.215 959.621 574.379 959.801 584.5
 c 943.211 584.699 926.574 583.734 909.977 584.625 c 898.234 585.355 886.477
 585.52 874.727 586 c h
993.949 542.75 m 995.512 542.789 997.035 542.281 998.398 541.449 c 999.352
 539.75 999.695 537.828 999.875 535.898 c 1005.113 507.551 1006.75 478.738
 1008.352 450 c 1008.82 443.391 1008.23 436.676 1009.148 430.125 c 1009.469
 416.344 1009.59 402.57 1009.398 388.801 c 1006.289 388.238 1003.141 388.578
 1000.051 389 c 991.012 389.898 981.945 388.531 973.074 386.949 c 968.516
 386.441 964.012 385.566 959.449 385.125 c 958.379 424.426 958.984 463.75
 958.574 503.051 c 958.594 512.031 958.539 520.996 958.602 529.977 c 958.578
 532.227 959.301 535.234 961.949 535.625 c 971.91 538.637 982.254 540.156
 992.375 542.523 c 992.895 542.668 993.43 542.738 993.949 542.75 c h
1174.648 402.102 m 1175.98 397.352 1174.77 392.391 1173.25 387.852 c 1169.91
 380.539 1163.969 374.84 1157.551 370.199 c 1151.82 365.789 1144.066 365.238
 1138.727 360.199 c 1137.996 361.352 1137.68 362.586 1137.75 363.926 c 1137.77
 368.316 1137.441 372.77 1138.602 377.051 c 1150.121 386.078 1162.512 393.941
 1174.648 402.102 c h
971.898 373.699 m 975.23 373.539 978.641 373.738 981.898 372.852 c 990.82
 372.129 999.656 370.531 1008.324 368.301 c 1009.199 366.125 l 1009.238 
365.297 1009.297 364.465 1009.375 363.625 c 1006.043 358.227 1002.012 353.328
 998.051 348.398 c 994.27 347.02 992.336 350.961 990.023 353.051 c 983.855
 359.82 977.719 366.641 971.898 373.699 c h
1178.273 355.852 m 1181.035 335.289 1183.785 314.715 1185.375 294.023 c
 1185.977 286.695 1185.422 279.309 1186.25 272 c 1186.711 265.969 1185.621
 259.98 1185.801 253.949 c 1185.68 242.238 1184.566 230.57 1183.176 218.949
 c 1182.203 212.898 1181.66 206.641 1179.199 200.949 c 1173.559 197.711 
1167.949 194.355 1161.801 192.176 c 1160.289 191.496 1158.625 191.422 1157.023
 191.551 c 1152.715 195.98 1147.805 200.113 1144.773 205.574 c 1142.754 
227.684 1140.895 249.879 1140.125 272.102 c 1139.203 279.02 1139.57 286.039
 1139.301 293 c 1138.09 310.461 1138.574 328 1138.426 345.5 c 1140.996 346.648
 1143.566 347.805 1146.227 348.773 c 1151.035 351.035 1156.051 352.82 1160.801
 355.25 c 1166.602 355.77 1172.445 355.781 1178.273 355.852 c h
1178.273 355.852 m f
0.0117647 g
640.57 535.191 m 643.078 535.84 646.379 535.121 647.52 532.551 c 648.469
 519.449 648.078 506.219 649.09 493.129 c 649.23 492.449 649.52 491.078 
649.66 490.391 c 650.789 490.5 652.012 490.488 652.949 491.27 c 659.699 
495.898 666.32 500.719 673.211 505.141 c 676.488 507.141 679.789 509.309
 683.539 510.32 c 687.039 510.828 689.621 507.84 691.379 505.219 c 696.48
 497.66 700.352 489.352 704.238 481.109 c 708.621 470.961 713.762 460.969
 716.238 450.129 c 717.52 445.941 713.211 443.531 710.449 441.422 c 696.57
 431.699 682.27 422.539 667.469 414.262 c 664.059 412.09 662.359 417.371
 660.039 419.012 c 662.91 422.441 665.922 425.77 669.012 429.02 c 670.23
 430.121 669.441 431.891 669.18 433.25 c 665.551 444.77 662.469 456.461 
658.801 467.961 c 658.699 468.57 658.5 469.781 658.398 470.391 c 655.172
 471.211 651.84 470.691 648.898 469.191 c 648.629 468.68 648.09 467.66 647.82
 467.148 c 647.129 448.781 647.898 430.398 647.77 412.02 c 647.691 389.34
 647.898 366.66 647.871 343.98 c 648.641 337.68 648.191 331.328 648.301 
325 c 648.379 308.602 648.488 292.199 648.73 275.801 c 651.621 268.578 658.66
 264.398 663.121 258.43 c 659.031 258.219 654.969 258.648 650.949 259.27
 c 644.969 259.371 638.93 259.82 633.012 259.871 c 623.391 260.789 613.641
 260.141 604.102 258.852 c 599.801 258.309 595.398 258.77 591.148 257.859
 c 585.59 257.852 579.672 256.801 574.449 259.23 c 571.73 260.469 568.988
 261.699 566.18 262.73 c 566.32 263.059 566.59 263.711 566.73 264.039 c 
571.762 266.961 576.121 270.879 580.309 274.871 c 584 278.609 587.77 282.77
 588.801 288.102 c 591.879 302.852 592.238 317.961 593.199 332.941 c 593.328
 376.641 593.922 420.328 594.43 464.012 c 594.289 465.66 594.789 467.512
 593.941 469.012 c 595.359 472.73 594.238 477.078 594.59 481.051 c 592.102
 480.32 589.629 479.551 587.18 478.73 c 586.051 478.691 584.922 478.648 
583.809 478.609 c 583.289 479.461 582.73 480.301 582.23 481.141 c 583.922
 483.34 586.172 484.969 588.23 486.801 c 603 501.328 617.73 515.91 632.441
 530.5 c 634.531 532.961 637.48 534.441 640.57 535.191 c h
640.57 535.191 m f
201.488 525.41 m 210 524.609 218.48 523.02 227.078 523.191 c 241.078 522.48
 255.141 522.359 269.129 523.441 c 280.301 523.871 291.41 525.809 302.59
 525.531 c 302.059 521.949 298.551 520.27 296.879 517.34 c 291.969 509.078
 288.02 500.148 285.84 490.781 c 284.922 483.898 284.531 476.949 284.512
 470.012 c 284.141 433.059 284.379 396.102 284.852 359.148 c 284.461 357.43
 286.32 356.738 287.672 357.379 c 308.98 362.691 331.039 364.328 352.949
 363.68 c 360.828 363.34 369.031 363.988 376.621 361.539 c 376.469 360.68
 376.328 359.82 376.191 358.961 c 373.809 358.09 371.328 357.281 369.41 
355.559 c 363.398 350.59 357.922 345.012 352.27 339.641 c 350.852 338.09
 348.5 336.551 349.219 334.102 c 351.398 321.891 351.922 309.441 354.309
 297.27 c 358.969 280.301 364.469 263.559 368.801 246.48 c 370.609 246.48
 372.289 247.141 373.52 248.5 c 376.16 251.211 379.328 253.328 382.129 255.859
 c 383.172 266.871 383.559 277.961 383.84 289.02 c 384.59 296.648 384.32
 304.309 384.559 311.961 c 384.852 352.148 384.07 392.441 379.219 432.379
 c 376.988 431.852 374.73 431.352 372.672 430.328 c 362.121 425.559 351.801
 420.25 341.98 414.121 c 339.328 412.57 336.852 410.398 335.879 407.391 
c 333.648 400.43 334.281 392.98 334.66 385.789 c 333.051 385.281 331.449
 384.762 329.852 384.238 c 321.461 397.75 312.762 411.219 306.82 426.039
 c 305.121 431.121 302.469 436.281 303.48 441.789 c 307.57 443.738 310.898
 446.871 314.629 449.379 c 329.539 459.93 345.262 469.539 362.18 476.512
 c 364.48 477.289 367.711 478.898 369.609 476.539 c 385.281 460.84 400.449
 444.641 415.469 428.32 c 423.559 419.281 432.422 409.859 434.852 397.531
 c 437.148 383.129 437.488 368.531 437.551 353.98 c 437.422 337.328 437.969
 320.648 436.77 304.031 c 436.68 291.25 436.309 278.48 436.301 265.699 c
 442.039 263.09 448.691 262.852 454.738 264.449 c 454.48 262.609 453.059
 261.352 451.781 260.148 c 443.41 252.52 434.922 245.012 426.359 237.602
 c 420.52 232.699 417.609 225.262 411.801 220.328 c 405.602 214.871 396.301
 214.398 388.73 216.828 c 380.98 220.852 381 230.57 380.371 238.121 c 370.262
 230.852 360.352 223.289 350.469 215.711 c 345.809 212.109 339.641 214.148
 334.449 215.148 c 330.66 216.199 325.809 217.691 324.77 222.031 c 320.379
 235.309 316.07 248.621 311.66 261.891 c 306.891 276.809 301.289 291.531
 298.078 306.898 c 296.711 311.828 299.148 316.66 301.602 320.789 c 308.211
 331.441 317.691 339.82 326.68 348.379 c 312.691 345.711 298.129 343.48 
285.641 336.211 c 285.531 301.809 285.949 267.422 285.84 233.02 c 286.512
 218.34 285.809 203.641 286.301 188.961 c 286.328 171.66 286.43 154.359 
286.879 137.07 c 287.91 123.578 290.078 108.891 299.441 98.43 c 302.809 
94.25 308.281 92.852 312.031 89.148 c 311.539 87.578 310.879 86.078 310.102
 84.629 c 308.41 84.621 306.73 84.52 305.059 84.738 c 286.488 87.75 267.762
 89.922 248.961 90.672 c 231.262 90.801 213.48 91.469 195.871 89.34 c 194.988
 92.23 192.059 94.5 192.27 97.621 c 202.078 103.109 211.531 110.738 215.391
 121.691 c 220.289 135.578 220.93 150.469 222.141 165.012 c 223.391 191.34
 223.781 217.719 223.031 244.07 c 222.359 261.719 222.512 279.449 220.289
 297 c 201.879 282.59 179.09 275.32 156.559 270.32 c 156.75 233.691 157.25
 197.059 157.5 160.43 c 157.871 152.738 157.141 144.988 158.051 137.328 
c 160.289 128.93 168.551 124.621 175.441 120.48 c 177.02 119.43 179.57 117.172
 178.148 115.25 c 175.281 114.891 172.641 116.281 169.91 116.871 c 161.141
 118.762 152.172 119.34 143.262 120.129 c 113.621 122.121 83.891 122.621
 54.191 122.781 c 53.129 123.102 50.199 124.121 52.391 125.102 c 52.469 
125.961 52.629 127.66 52.711 128.52 c 63.301 132.699 73.949 138.781 79.828
 148.91 c 83.422 154.961 83.512 162.16 84.121 168.949 c 84.949 182.289 84.711
 195.672 85.23 209.031 c 85.25 227.52 84.852 246.012 84.578 264.5 c 70.531
 271.012 56.461 277.512 42.762 284.738 c 33.211 289.449 26.441 298.109 20.641
 306.77 c 15.77 314.422 11.41 322.441 8 330.859 c 8 332.91 l 23.281 339.84
 40.109 342.238 56.59 344.5 c 56.602 342.871 57.07 340.719 55.328 339.781
 c 45.059 333.629 34.211 328.441 24.199 321.828 c 27.559 317.898 31.75 314.84
 35.941 311.871 c 47.52 303.852 60.059 297.32 72.738 291.23 c 76.199 289.68
 79.609 287.578 83.52 287.539 c 84.141 294.012 83.738 300.531 83.809 307.02
 c 83.359 320.32 83.711 333.66 82.711 346.941 c 82.379 356.961 82.719 367.012
 81.809 376.988 c 81 410.371 79.512 443.73 78.27 477.078 c 76.23 487.539
 67.059 494.672 57.422 497.922 c 57.59 499.91 58.781 501.91 60.84 502.359
 c 64.219 502.672 67.629 502.309 71.012 502.09 c 75.648 501.41 80.34 501.84
 85.012 501.738 c 91.988 501.828 99 501.422 105.961 502.199 c 116.621 502.41
 127.289 502.461 137.961 502.719 c 147.078 503.43 156.238 503.559 165.391
 503.602 c 165.07 501.629 164.738 499.672 164.422 497.711 c 158.75 494.809
 155.16 489.059 153.648 483.02 c 152.551 476.75 152.699 470.352 152.621 
464 c 152.621 447.328 152.578 430.66 153.18 414.012 c 153.531 400.012 153.301
 385.98 154.238 372 c 154.422 361.32 154.469 350.629 154.871 339.949 c 155.68
 326.34 155.691 312.672 156.699 299.051 c 163.281 299.961 169.199 303.27
 175.07 306.172 c 190.988 314.949 206.5 324.699 220.609 336.199 c 220.762
 392.859 219.191 449.559 214.699 506.031 c 214.488 511.941 209.77 516.18
 204.789 518.559 c 202.012 519.68 201.16 522.66 201.488 525.41 c h
201.488 525.41 m f
1314.84 526.57 m 1317.879 527.148 1318.621 523.871 1318.52 521.539 c 1318.629
 507.68 1319.199 493.828 1319.359 479.969 c 1319.82 471.82 1319.051 463.559
 1320.23 455.488 c 1329.91 455.602 1339.59 455.16 1349.281 455.199 c 1349.48
 453.441 1349.648 451.672 1349.879 449.91 c 1350.711 447.02 1350.25 443.949
 1351.121 441.07 c 1351.449 437.941 1351.75 434.789 1351.93 431.641 c 1342.621
 431.441 1333.309 431.281 1324 431.199 c 1322.711 431.289 1321.5 430.922
 1320.352 430.469 c 1318.602 402.34 1320.039 374.148 1319.461 345.988 c 
1318.961 321.621 1317.801 297.27 1317.129 272.898 c 1316.309 269.32 1316.789
 265.602 1316.531 261.961 c 1315.469 234.32 1313.969 206.66 1313.02 179.012
 c 1312.609 171.969 1311.109 163.852 1315.719 157.801 c 1323.191 150.238
 1331.828 143.871 1340.699 138.039 c 1338.859 135.961 1337.191 133.609 1334.891
 132.039 c 1333.09 132.031 1331.551 133.172 1329.969 133.789 c 1311.699 
142.859 1293.238 151.602 1275.629 161.93 c 1271.148 164.559 1266.762 167.66
 1263.93 172.102 c 1261.148 176.18 1260.359 181.211 1260.32 186.039 c 1260.66
 212.039 1261 238.039 1262.059 264.02 c 1262.922 289.73 1265.77 315.301 
1266.281 341.02 c 1266.789 367.648 1266.539 394.41 1263.84 420.891 c 1263.629
 424.762 1263.109 428.59 1262.301 432.371 c 1248.102 432.309 1233.91 432.57
 1219.719 432.57 c 1219.539 435.07 1219.441 437.57 1219.629 440.07 c 1236.84
 449.66 1252.672 461.648 1267.52 474.578 c 1282.039 487.441 1295.18 501.852
 1306.719 517.441 c 1309.191 520.68 1311.559 524.07 1314.84 526.57 c h
1314.84 526.57 m f
492.648 508.109 m 494.922 509.359 497.078 511.539 499.859 511.289 c 503.941
 510.621 507.602 508.59 511.449 507.211 c 513.602 497.391 513.578 487.121
 515.141 477.191 c 515.262 476.031 515.379 474.859 515.5 473.691 c 515.859
 473.422 516.559 472.891 516.922 472.621 c 522.238 476.898 528.148 480.379
 533.898 484.051 c 539.211 487.371 545.422 490.281 551.84 489.289 c 555.898
 488.309 558.07 484.328 560.02 481 c 564.398 472.129 568.191 462.969 571.82
 453.77 c 575.93 443.781 580.34 433.75 582.328 423.09 c 582.09 419.699 580.488
 416.559 577.531 414.77 c 564.449 406.27 551.051 398.262 537.648 390.281
 c 536.148 389.449 534.699 388.289 532.898 388.43 c 531.93 390.141 530.699
 391.672 529.32 393.039 c 532.57 396.25 535.57 399.699 538.59 403.109 c 
538.391 403.25 537.969 403.539 537.77 403.68 c 536.91 408.84 535.211 413.809
 533.859 418.859 c 530.789 429.988 527.43 441.039 524.281 452.141 c 523.621
 455.219 519.941 458.809 517 456 c 516.172 452.77 516.699 449.391 516.719
 446.102 c 517.441 423.371 518.379 400.66 518.84 377.93 c 519.988 370.059
 518.871 361.969 520.148 354.09 c 521.059 339.34 523.039 324.672 523.879
 309.91 c 525.91 291.93 525.809 273.68 528.672 255.77 c 530.5 250.781 535.762
 248.352 540.172 246.07 c 540.461 245.59 541.031 244.621 541.309 244.129
 c 541.141 243.551 540.781 242.371 540.602 241.789 c 512.738 241.109 484.859
 241.238 456.98 241.211 c 454.02 241.211 451.039 241.059 448.102 241.551
 c 449.641 245.371 452.309 248.77 455.891 250.852 c 459.5 252.879 463.141
 255.031 466.02 258.039 c 467.07 259.078 467.488 260.512 467.371 261.949
 c 467.391 290.301 467.34 318.641 467.281 346.98 c 467.59 351 466.57 354.949
 466.738 358.969 c 466.762 380.328 466.449 401.699 466.262 423.059 c 465.109
 435.531 466.141 448.148 464.449 460.59 c 454.301 460.602 444.07 461.078
 433.98 459.801 c 432.199 460.281 429.488 461.34 429.309 463.441 c 450.262
 478.539 471.172 493.75 492.648 508.109 c h
492.648 508.109 m f
1403.23 498.801 m 1404.59 501.488 1406.059 504.379 1408.961 505.719 c 1409.609
 505.359 1410.922 504.641 1411.57 504.281 c 1412.602 495.852 1412.41 487.352
 1412.879 478.891 c 1413.629 475.641 1413.219 472.281 1413.449 468.969 c
 1414.121 452.559 1415.148 436.172 1415.75 419.75 c 1420.488 419.859 1425.262
 419.629 1430 420.051 c 1433.34 419.41 1436.672 420.379 1440.031 420.32 
c 1445.27 420.262 1450.52 420.309 1455.762 420.5 c 1455.441 413.91 1455.898
 407.191 1454.609 400.691 c 1441.969 400.18 1429.309 399.602 1416.711 398.48
 c 1416.852 383.621 1416.621 368.762 1416.84 353.91 c 1417.5 351.68 1417.211
 349.34 1417.262 347.051 c 1417.199 322.379 1417.66 297.699 1417.738 273.031
 c 1418.699 261.73 1418.16 250.359 1418.539 239.02 c 1418.891 218.379 1419.461
 197.77 1419.82 177.109 c 1420.52 165.922 1420.141 154.66 1421.34 143.5 
c 1431.961 138.059 1442.398 132.281 1453 126.809 c 1455.871 125.68 1458.66
 122.641 1461.891 123.59 c 1469.031 128.441 1475.391 134.359 1481.961 139.93
 c 1483.609 140.961 1482.551 142.93 1482.172 144.352 c 1471.328 147.691 
1460.039 149.129 1449 151.602 c 1445.172 152.648 1440.039 152.352 1437.98
 156.43 c 1445.141 158.359 1452.648 157.262 1459.969 157 c 1476.949 156.121
 1493.93 155.039 1510.898 153.98 c 1512.691 153.641 1515.5 153.609 1515.578
 151.059 c 1515.98 147.738 1512.738 146.238 1510.77 144.281 c 1502.898 137.09
 1495.898 129.031 1488.461 121.41 c 1483.988 116.891 1481.059 110.891 1475.57
 107.422 c 1473.672 105.801 1470.961 106.031 1468.75 106.691 c 1450.711 
112.27 1432.801 118.309 1415.23 125.211 c 1399.07 131.672 1382.57 138.16
 1368.488 148.602 c 1366.602 150.379 1364 152.102 1363.859 154.941 c 1362.309
 181.621 1362.711 208.34 1362.672 235.059 c 1362.75 245.398 1363 255.73 
1363.328 266.059 c 1363.461 310.512 1362.328 354.941 1361.41 399.379 c 1354.25
 399.02 1347.059 399.031 1339.93 399.648 c 1336.809 399.77 1335.289 403.609
 1336.488 406.172 c 1337.391 407.699 1338.59 409.02 1339.84 410.289 c 1353.789
 424.391 1366.879 439.422 1378.09 455.828 c 1387.711 469.379 1395.781 483.961
 1403.23 498.801 c h
1403.23 498.801 m f
1651.031 459.059 m 1653.828 461.16 1656.828 458.461 1657.27 455.559 c 1658.93
 446.781 1658.84 437.77 1660.32 428.961 c 1670.73 435.211 1681.219 441.328
 1691.512 447.789 c 1693.789 449.18 1695.609 451.531 1698.43 451.871 c 1700.309
 452.219 1702.93 452.121 1704.031 450.238 c 1708.691 443.73 1712.641 436.73
 1716.82 429.898 c 1723.281 418.59 1729.891 407.289 1734.641 395.129 c 1736.32
 391.16 1736.59 386.66 1735.789 382.449 c 1732.77 376.32 1726.75 372.609
 1721.84 368.141 c 1707.75 356.75 1693.469 345.59 1679.121 334.531 c 1677.781
 336.59 1675.922 338.211 1674.16 339.859 c 1678.02 345.789 1682.578 351.25
 1686.629 357.051 c 1686.93 358.398 1686.469 359.738 1686.121 361.02 c 1682.609
 371.941 1679.34 382.941 1675.84 393.871 c 1674.102 399.441 1672.41 405.012
 1670.621 410.551 c 1666.93 407.988 1663.23 405.422 1659.41 403.051 c 1659.852
 373 1661.371 342.98 1661.84 312.922 c 1662.891 302.641 1662.27 292.199 
1662.859 281.859 c 1663.879 272.969 1663.051 263.91 1664.02 255 c 1664.531
 232.25 1665.73 209.531 1666.809 186.809 c 1667.789 178.949 1673.75 172.93
 1680.262 169.039 c 1688.48 164.121 1697.75 161.211 1707.039 159.07 c 1708.641
 158.641 1710.27 158.359 1711.922 157.898 c 1715.789 157.391 1719.641 156.59
 1723.559 156.199 c 1723.512 154 1723.41 151.801 1723.328 149.602 c 1714.879
 149.121 1706.422 149.699 1697.98 149.559 c 1694.34 149.789 1690.66 149.379
 1687.102 150.109 c 1675.641 150.078 1664.211 151.379 1653.078 154.078 c
 1641.941 156.539 1630.941 159.578 1620.039 162.922 c 1606.301 166.961 1591.93
 169.969 1577.559 168.25 c 1576.609 170.461 1575.621 172.66 1575 174.969
 c 1587.012 176.031 1595.328 186.25 1601.621 195.578 c 1606.512 205.621 
1606.5 217.121 1606.73 228.039 c 1607.059 259.398 1606.309 290.75 1606.109
 322.109 c 1605.23 330.34 1605.809 338.73 1605.461 347.02 c 1605.539 364.32
 1604.27 381.559 1604.57 398.859 c 1599.602 399.141 1594.66 398.18 1589.699
 398.379 c 1589.602 399.59 1589.52 400.809 1589.461 402.02 c 1591.621 405.289
 1593.469 408.852 1596.469 411.461 c 1614.859 427.078 1632.75 443.301 1651.031
 459.059 c h
1651.031 459.059 m f
0 g
1519.176 434.773 m 1516.496 434.699 1513.82 434.383 1511.273 433.699 c 
1492.164 418.789 1473.672 403.039 1454.449 388.301 c 1452.398 378.711 1452.199
 368.773 1450.898 359.074 c 1450.789 352.637 1448.289 346.488 1448.352 340.051
 c 1449.48 313.738 1449.215 287.422 1449.574 261.102 c 1449.477 254.66 1447.398
 248.469 1447.148 242.051 c 1450.891 238.16 1454.34 233.988 1458.051 230.051
 c 1471.371 216.352 1484.727 202.43 1500.523 191.551 c 1502.984 189.641 
1506.172 189.273 1509.148 188.727 c 1516.75 188.023 1524.422 187.141 1532.051
 188.301 c 1535.75 188.07 1538.539 190.887 1540.602 193.625 c 1547.539 203.824
 1555.398 213.359 1562.898 223.148 c 1566.898 228.762 1571.852 233.773 1574.852
 240.023 c 1568.27 249.516 1563.289 260.316 1555.25 268.676 c 1554.34 268.594
 1552.512 268.422 1551.602 268.352 c 1550.922 262.102 1549.449 256.004 1548.102
 249.875 c 1544.211 233.934 1539.977 217.926 1532.824 203.074 c 1532.016
 201.586 1531.148 198.586 1528.949 200.074 c 1517.891 206.297 1509.738 217.609
 1506.898 229.949 c 1505.18 240.219 1505.746 250.699 1504.875 261.051 c 
1504.594 274.031 1504.359 287.012 1504.352 300 c 1504.262 301.68 1504.5 
303.48 1503.648 305 c 1504.629 306.539 1504.23 308.336 1503.852 309.977 
c 1504.309 317.016 1502.145 324.68 1505.824 331.25 c 1516.414 331.371 1526.621
 328.211 1536.852 325.852 c 1542.98 324.359 1549.078 322.754 1555.199 321.176
 c 1556.488 320.785 1557.773 320.496 1559.125 320.176 c 1563.566 318.996
 1568.039 317.934 1572.5 316.773 c 1574.109 316.414 1576.246 315.93 1577.426
 317.5 c 1586.316 325.781 1591.797 336.922 1597.375 347.5 c 1595.453 354.141
 1592.52 360.539 1590.25 367.102 c 1586.859 376.051 1583.43 384.984 1580.148
 393.977 c 1578.039 399.074 1576.551 404.441 1574.25 409.449 c 1567.461 
413.73 1560.16 417.238 1553.148 421.199 c 1550.52 422.57 1547.879 423.922
 1545.25 425.25 c 1538.301 428.68 1531.453 432.535 1523.977 434.676 c 1522.387
 434.77 1520.781 434.82 1519.176 434.773 c h
1517.426 417.25 m 1519.305 417.207 1520.945 416.258 1521.324 414.023 c 
1525.215 404.023 1529.164 394.07 1533.125 384.102 c 1538.246 371.488 1542.895
 358.672 1548.324 346.199 c 1548.297 345.352 1548.289 344.5 1548.301 343.648
 c 1542.199 343.34 1536.121 344.488 1530.102 345.148 c 1521.461 345.648 
1512.871 346.879 1504.25 347.602 c 1504.281 357.801 1505.371 367.945 1505.75
 378.125 c 1506.988 390.074 1506.07 402.691 1511.199 413.852 c 1512.199 
415.891 1515.008 417.309 1517.426 417.25 c h
1517.426 417.25 m f
0.0117647 g
772.27 414.352 m 780.738 412.68 789.469 413.789 798.031 412.789 c 805.699
 412.641 813.309 411.809 820.898 410.852 c 825.172 410.699 829.512 410.488
 833.719 411.488 c 833.621 410.648 833.531 409.801 833.441 408.961 c 829.809
 403.039 826.328 396.961 823.711 390.512 c 814.43 370.469 803.578 351.23
 792.82 331.949 c 783.141 314.871 774.531 297.199 765 280.031 c 739.859 
234.859 712.449 190.82 681.039 149.719 c 663.949 149.391 646.879 150.859
 629.922 152.879 c 613.82 155.391 597.781 158.559 582.129 163.148 c 576.73
 164.602 571.422 166.391 566.129 168.18 c 562.441 169.512 558.711 170.719
 555.078 172.199 c 551.289 173.641 547.578 175.25 543.871 176.84 c 537.238
 179.73 530.77 182.949 524.422 186.379 c 523.969 190.102 526.719 193.371
 528.309 196.559 c 535.012 207.102 543.891 215.988 552.91 224.52 c 565.949
 223.641 578.949 222.078 591.969 221 c 595.199 220.059 599.012 221.41 601.859
 219.289 c 601.551 217.441 599.609 217.27 598.23 216.75 c 587.488 213.789
 576.691 211.07 566 207.93 c 563.738 207.512 563.441 204.898 562.539 203.18
 c 560.809 198.461 558.469 193.762 558.34 188.629 c 566.039 184.949 574.75
 184.422 583.051 182.949 c 610.352 179.25 638.078 177.559 665.539 180.352
 c 675.5 196.68 685.898 212.75 696.039 228.98 c 699.059 233.398 701.559 
238.172 704.922 242.352 c 706.461 244.27 705.551 246.961 705.148 249.141
 c 698.141 273.84 690.398 298.328 682.789 322.852 c 679.488 333.199 676.211
 343.559 672.84 353.879 c 671.109 358.859 669.578 363.922 667.82 368.891
 c 665.949 373.961 664.461 379.191 662.09 384.059 c 659.199 387.641 654.172
 388.379 649.859 388.82 c 650.25 390.16 650.898 391.398 651.75 392.512 c
 655.199 392.551 658.641 392.66 662.09 392.859 c 673.012 393.941 684.078
 393.379 695.039 394.141 c 709.281 393.941 723.461 395.941 737.648 396.398
 c 734.891 390.422 726.691 391.141 723.121 385.941 c 721.32 383.93 721.09
 381.07 721.809 378.559 c 727.359 357.34 732.93 336.109 738.93 315.012 c
 739.801 312.629 740.012 309.801 742.078 308.07 c 752.148 323.828 760.879
 340.398 770.109 356.672 c 773.809 363.48 777.57 370.262 781 377.211 c 782.66
 380.578 782.809 384.41 784.129 387.891 c 785.379 391.941 786.719 395.969
 788.148 399.961 c 788.828 401.699 789.551 403.441 790.238 405.18 c 783.32
 405.84 777.43 410.012 772.27 414.352 c h
772.27 414.352 m f
0.521569 g
901.941 41.398 m 904.762 30.789 905.191 19.75 907.488 9.039 c 909.461 15.879
 909.629 23.09 910.738 30.102 c 910.449 22.699 910.051 15.27 908.5 8 c 906.129
 8 l 906.711 8.66 l 905.801 19.66 902.449 30.34 901.941 41.398 c h
901.941 41.398 m f
Q Q
showpage
%%Trailer
end restore
%%EOF
