%!PS-Adobe-3.0 EPSF-3.0
%%Creator: cairo 1.14.10 (http://cairographics.org)
%%CreationDate: Sun Jul 16 03:48:47 2017
%%Pages: 1
%%DocumentData: Clean7Bit
%%LanguageLevel: 2
%%BoundingBox: 0 0 76 63
%%EndComments
%%BeginProlog
save
50 dict begin
/q { gsave } bind def
/Q { grestore } bind def
/cm { 6 array astore concat } bind def
/w { setlinewidth } bind def
/J { setlinecap } bind def
/j { setlinejoin } bind def
/M { setmiterlimit } bind def
/d { setdash } bind def
/m { moveto } bind def
/l { lineto } bind def
/c { curveto } bind def
/h { closepath } bind def
/re { exch dup neg 3 1 roll 5 3 roll moveto 0 rlineto
      0 exch rlineto 0 rlineto closepath } bind def
/S { stroke } bind def
/f { fill } bind def
/f* { eofill } bind def
/n { newpath } bind def
/W { clip } bind def
/W* { eoclip } bind def
/BT { } bind def
/ET { } bind def
/pdfmark where { pop globaldict /?pdfmark /exec load put }
    { globaldict begin /?pdfmark /pop load def /pdfmark
    /cleartomark load def end } ifelse
/BDC { mark 3 1 roll /BDC pdfmark } bind def
/EMC { mark /EMC pdfmark } bind def
/cairo_store_point { /cairo_point_y exch def /cairo_point_x exch def } def
/Tj { show currentpoint cairo_store_point } bind def
/TJ {
  {
    dup
    type /stringtype eq
    { show } { -0.001 mul 0 cairo_font_matrix dtransform rmoveto } ifelse
  } forall
  currentpoint cairo_store_point
} bind def
/cairo_selectfont { cairo_font_matrix aload pop pop pop 0 0 6 array astore
    cairo_font exch selectfont cairo_point_x cairo_point_y moveto } bind def
/Tf { pop /cairo_font exch def /cairo_font_matrix where
      { pop cairo_selectfont } if } bind def
/Td { matrix translate cairo_font_matrix matrix concatmatrix dup
      /cairo_font_matrix exch def dup 4 get exch 5 get cairo_store_point
      /cairo_font where { pop cairo_selectfont } if } bind def
/Tm { 2 copy 8 2 roll 6 array astore /cairo_font_matrix exch def
      cairo_store_point /cairo_font where { pop cairo_selectfont } if } bind def
/g { setgray } bind def
/rg { setrgbcolor } bind def
/d1 { setcachedevice } bind def
/cairo_flush_ascii85_file { cairo_ascii85_file status { cairo_ascii85_file flushfile } if } def
/cairo_image { image cairo_flush_ascii85_file } def
/cairo_imagemask { imagemask cairo_flush_ascii85_file } def
%%EndProlog
%%BeginSetup
%%EndSetup
%%Page: 1 1
%%BeginPageSetup
%%PageBoundingBox: 0 0 76 63
%%EndPageSetup
q 0 0 76 63 rectclip q
0 g
72.461 15 m 72.281 15 72.094 14.988 71.906 14.969 c 70.98 14.863 70.023
 14.516 69.066 14 c 68.719 13.812 68.395 13.617 68.094 13.418 c 67.801 13.73
 l 67.434 14.125 l 66.941 13.898 l 66.805 13.84 66.535 13.727 66.148 13.574
 c 65.496 13.328 64.754 13.078 63.945 12.844 c 62.059 12.305 60.094 11.945
 58.121 11.828 c 57.668 12.434 57.297 12.707 57.012 12.844 c 57.062 12.82
 56.965 12.891 56.84 12.98 c 56.633 13.137 56.422 13.301 56.23 13.465 c 
56.094 13.578 55.973 13.688 55.871 13.793 c 55.777 13.883 55.703 13.965 
55.645 14.031 c 55.949 14.496 56.16 14.969 56.277 15.434 c 56.371 15.816
 56.398 16.148 56.387 16.406 c 56.375 16.52 56.367 16.641 56.355 16.809 
c 56.336 17.082 56.312 17.375 56.297 17.668 c 56.277 17.898 56.266 18.117
 56.254 18.328 c 56.223 18.875 56.207 19.324 56.207 19.637 c 56.207 20.387
 55.785 20.977 55.141 21.434 c 54.793 21.68 54.453 21.84 54.207 21.926 c
 54.258 21.91 54.164 21.965 54.035 22.047 c 53.82 22.191 53.605 22.359 53.406
 22.551 c 52.797 23.129 52.492 23.754 52.586 24.41 c 52.629 24.723 52.637
 25.051 52.617 25.387 c 52.562 26.238 52.32 27.129 51.945 28.016 c 51.695
 28.613 51.441 29.082 51.266 29.367 c 51.176 29.488 51.078 29.629 50.949
 29.82 c 50.73 30.145 50.516 30.492 50.312 30.852 c 50.059 31.305 49.848
 31.742 49.695 32.145 c 49.496 32.676 49.41 33.121 49.445 33.438 c 49.52
 34.141 49.523 34.867 49.469 35.617 c 49.266 38.359 48.262 41.184 46.586
 44.398 c 46.543 44.48 43.836 49.301 43.836 49.551 c 43.836 50.441 43.52
 51.094 42.977 51.473 c 42.629 51.715 42.285 51.793 42.008 51.797 c 41.641
 51.777 41.297 51.805 40.992 51.891 c 40.52 52.023 40.316 52.23 40.316 52.629
 c 40.316 52.844 40.293 53.059 40.25 53.277 c 40.094 54.055 39.691 54.84
 39.113 55.621 c 38.863 55.961 38.598 56.277 38.336 56.562 c 38.176 56.738
 38.047 56.867 37.969 56.938 c 37.945 56.973 37.816 57.117 37.652 57.309
 c 37.379 57.633 37.105 57.965 36.852 58.289 c 36.758 58.406 36.672 58.52
 36.59 58.633 c 36.129 59.242 35.82 59.766 35.82 59.793 c 35.82 61.352 34.367
 61.867 31.07 61.496 c 29.547 61.328 28.492 61.445 27.195 61.809 c 27.176
 61.812 26.48 62.016 26.285 62.066 c 25.93 62.16 25.637 62.215 25.344 62.238
 c 25.25 62.246 25.16 62.25 25.066 62.25 c 23.969 62.25 23.434 61.754 22.938
 60.695 c 22.914 60.648 22.797 60.391 22.766 60.316 c 22.699 60.18 22.645
 60.07 22.586 59.969 c 22.5 59.809 22.41 59.672 22.309 59.551 c 22.102 59.289
 21.609 59.051 20.656 58.75 c 20.379 58.664 18.922 58.238 18.473 58.098 
c 17.488 57.789 16.645 57.477 15.805 57.094 c 13.891 56.223 12.555 55.5 
11.676 54.801 c 10.359 53.746 10.008 52.527 11.238 51.602 c 12.168 50.898
 13.676 50.969 15.906 51.512 c 16.348 51.621 16.812 51.746 17.344 51.902
 c 17.703 52.004 18.805 52.336 18.941 52.375 c 19.449 52.523 19.77 52.605
 19.961 52.637 c 21.262 52.836 22.055 52.402 22.266 51.164 c 22.43 50.195
 22.988 49.398 23.793 48.773 c 24.348 48.336 24.902 48.062 25.293 47.922
 c 26.695 47.648 l 26.246 47.465 25.891 47.09 25.613 46.598 c 25.406 46.23
 25.281 45.875 25.219 45.617 c 25.129 45.309 25.078 45.133 25.027 44.945
 c 24.879 44.402 24.727 43.828 24.59 43.25 c 24.484 42.816 24.387 42.395
 24.305 41.988 c 24.199 41.48 24.145 40.883 24.125 40.215 c 24.109 39.465
 24.141 38.672 24.203 37.887 c 24.215 37.73 24.23 37.594 24.242 37.457 c
 24.066 37.293 23.871 37.098 23.668 36.867 c 23.211 36.34 22.883 35.805 
22.75 35.254 c 22.594 34.594 22.738 33.957 23.23 33.457 c 24.016 32.656 
24.004 31.719 23.359 30.496 c 22.875 29.582 22.742 28.824 22.828 28.25 c
 22.863 28.078 22.883 27.98 22.902 27.84 c 22.961 27.434 22.977 27.008 22.926
 26.629 c 22.91 26.508 22.891 26.395 22.863 26.293 c 22.809 26.09 22.742
 25.98 22.641 25.867 c 22.605 25.828 22.402 25.625 22.449 25.672 c 22.105
 25.328 21.938 24.977 21.938 24.438 c 21.938 23.02 21.918 22.828 21.844 
22.719 c 21.816 22.676 21.52 22.328 21.398 22.172 c 21.102 21.793 20.801
 21.328 20.449 20.699 c 19.742 19.43 19.227 18.156 18.875 16.938 c 18.727
 16.43 18.629 16.012 18.566 15.691 c 18.301 15.527 18 15.309 17.695 15.016
 c 17.262 14.594 16.914 14.105 16.695 13.543 c 16.566 13.219 16.5 12.91 
16.48 12.617 c 8.23 14.215 3.383 13.602 1.156 11.422 c 0.664 10.938 0.344
 10.41 0.168 9.875 c 0.07 9.578 0.035 9.336 0.027 9.133 c -0.023 8.789 0.008
 8.492 0.098 8.184 c 0.078 8.133 0.164 7.984 0.164 7.984 c 0.434 7.309 1.039
 6.613 2.094 5.984 c 3.379 5.219 5.254 4.605 7.812 4.18 c 9.859 3.836 12.324
 3.613 15.113 3.496 c 18.66 3.348 22.445 3.375 26.066 3.512 c 26.578 3.531
 27.043 3.551 27.48 3.57 c 34.465 1.91 41.184 0.832 47.527 0.555 c 49.824
 0.453 52.039 0.461 54.164 0.582 c 55.305 0.648 56.504 0.848 57.582 1.223
 c 57.996 1.367 58.406 1.539 58.816 1.734 c 59.246 1.938 59.652 2.156 60.023
 2.375 c 60.117 2.434 60.195 2.48 60.27 2.523 c 62.281 2.305 l 62.629 2.348
 l 62.73 2.387 62.922 2.457 63.184 2.566 c 63.621 2.742 64.105 2.945 64.633
 3.176 c 66.125 3.836 67.625 4.57 69.023 5.367 c 73.188 7.734 75.691 10.133
 75.691 12.648 c 75.691 14.051 74.648 15 72.461 15 c h
55.266 12.316 m 55.484 12.133 55.719 11.949 55.949 11.777 c 56.09 11.672
 56.199 11.598 56.266 11.551 c 56.457 11.449 56.637 11.312 56.836 11.055
 c 57.207 10.57 57.418 9.883 57.406 8.961 c 46.918 8.031 35.801 8.316 25.328
 10.562 c 24.43 10.754 23.555 10.969 22.68 11.191 c 23.129 11.379 23.594
 11.562 24.07 11.742 c 25.574 12.297 27.039 12.723 28.402 12.98 c 29.285
 13.145 30.109 13.227 30.859 13.227 c 31.375 13.227 32.047 13.281 33.043
 13.395 c 33.566 13.453 35.664 13.703 35.996 13.742 c 38.605 14.047 40.59
 14.211 42.551 14.242 c 45.496 14.281 48.562 14.148 51.605 13.902 c 52.508
 13.828 53.344 13.746 54.094 13.668 c 54.215 13.371 54.469 13.059 54.824
 12.715 c 54.953 12.586 55.105 12.453 55.266 12.316 c h
18.09 12.996 m 18.227 13.344 18.449 13.656 18.738 13.938 c 18.926 14.117
 19.125 14.27 19.324 14.395 c 19.441 14.469 19.523 14.512 19.559 14.531 
c 19.934 14.703 l 19.988 15.113 l 19.996 15.168 20.016 15.289 20.051 15.473
 c 20.113 15.781 20.199 16.133 20.312 16.52 c 20.637 17.633 21.109 18.805
 21.758 19.969 c 22.074 20.535 22.336 20.934 22.582 21.254 c 22.664 21.355
 23 21.754 23.082 21.871 c 23.414 22.355 23.438 22.602 23.438 24.438 c 23.438
 24.539 23.438 24.535 23.512 24.609 c 23.551 24.648 23.703 24.801 23.754
 24.859 c 24.008 25.141 24.191 25.461 24.309 25.895 c 24.355 26.066 24.391
 26.25 24.418 26.438 c 24.484 26.969 24.465 27.52 24.387 28.051 c 24.363
 28.234 24.336 28.375 24.316 28.461 c 24.301 28.551 24.309 28.672 24.328
 28.809 c 24.75 27.828 25.57 27.203 26.801 27.203 c 27.109 27.203 27.414
 27.215 27.723 27.234 c 27.465 27.016 27.203 26.805 26.965 26.582 c 26.734
 26.367 26.566 26.199 26.469 26.102 c 26.469 26.102 27.078 25.605 27.773
 25.672 c 28.309 25.723 28.938 26.316 29.105 26.453 c 29.449 26.727 29.785
 26.969 30.098 27.172 c 30.684 27.551 31.16 27.75 31.43 27.75 c 31.719 27.75
 32.094 27.684 32.523 27.551 c 32.883 27.441 33.27 27.297 33.664 27.125 
c 33.992 26.984 34.309 26.828 34.602 26.676 c 34.777 26.582 34.902 26.512
 34.969 26.473 c 35.125 26.398 35.277 26.332 35.492 26.254 c 35.84 26.117
 36.223 25.984 36.637 25.859 c 37.809 25.508 38.98 25.293 40.094 25.285 
c 40.633 25.281 41.141 25.324 41.625 25.426 c 42.387 25.582 43.082 25.777
 43.715 26 c 44.812 26.387 45.547 26.781 45.934 27.062 c 45.934 27.062 45.449
 27.637 44.695 27.75 c 44.219 27.82 43.434 27.492 43.219 27.414 c 42.645
 27.215 42.016 27.039 41.32 26.895 c 40.949 26.816 40.543 26.785 40.105 
26.785 c 39.227 26.793 38.27 26.961 37.309 27.234 c 37.309 27.344 37.215
 27.395 37.094 27.469 c 36.891 27.59 36.684 27.734 36.496 27.891 c 36.293
 28.059 36.121 28.234 35.996 28.406 c 35.449 29.164 35.562 29.004 35.5 29.105
 c 35.453 29.18 35.426 29.234 35.352 29.402 c 35.609 29.434 35.816 29.43
 36.008 29.418 c 36.062 29.414 36.203 29.402 36.203 29.402 c 36.5 29.402
 36.957 29.473 37.527 29.672 c 38.441 29.996 39.348 30.574 40.18 31.461 
c 40.402 31.695 40.613 31.953 40.82 32.227 c 42.762 34.828 43.379 37.367
 42.523 40.246 c 42.633 40.199 42.621 40.176 43.219 40.176 c 43.82 40.176
 44.242 41.051 44.242 41.051 c 44.199 41.074 44.129 41.117 44.031 41.172
 c 43.875 41.258 43.707 41.348 43.539 41.43 c 43.43 41.488 43.316 41.539
 43.211 41.586 c 43.059 41.652 42.918 41.707 42.781 41.75 c 42.27 41.918
 41.668 42 41.285 42 c 38.574 42 36.586 40.051 34.668 36.504 c 34.223 35.676
 32.961 33.074 33 33.152 c 32.402 31.973 31.801 31.227 31.238 30.812 c 30.957
 30.605 30.789 30.547 30.758 30.547 c 30.773 30.547 30.66 30.566 30.469 
30.637 c 30.102 30.773 29.684 31.031 29.223 31.449 c 29.121 31.543 29.016
 31.645 28.887 31.77 c 28.805 31.848 28.711 31.938 28.531 32.109 c 26.969
 33.629 26.016 34.211 24.793 33.887 c 24.656 34.098 24.5 34.305 24.305 34.508
 c 24.191 34.621 24.168 34.727 24.211 34.91 c 24.273 35.18 24.484 35.523
 24.801 35.883 c 24.938 36.043 25.086 36.191 25.238 36.328 c 27.281 35.105
 l 27.805 34.973 28.309 34.961 28.777 35.094 c 29.379 35.27 30 35.762 30.699
 36.523 c 31.047 36.902 31.41 37.344 31.781 37.84 c 32.207 38.402 32.621
 39.004 33.012 39.609 c 33.148 39.816 33.273 40.016 33.383 40.191 c 33.414
 40.238 34.078 41.527 34.996 42.785 c 36.078 44.266 37.441 45.75 37.441 
45.75 c 36.082 45.75 34.832 44.844 33.656 43.367 c 33.27 42.879 32.918 42.363
 32.605 41.844 c 32.418 41.531 32.281 41.285 32.207 41.137 c 32.211 41.148
 32.168 41.078 32.105 40.98 c 32.004 40.812 31.883 40.625 31.754 40.422 
c 31.379 39.848 30.984 39.273 30.582 38.738 c 30.238 38.281 29.906 37.875
 29.594 37.535 c 29.07 36.965 28.625 36.609 28.363 36.535 c 28.172 36.48
 27.934 36.488 27.648 36.559 c 27.23 36.664 26.754 36.902 26.262 37.234 
c 26.074 37.359 25.902 37.445 25.742 37.508 c 25.73 37.645 25.715 37.812
 25.695 38.008 c 25.637 38.746 25.609 39.488 25.625 40.176 c 25.641 40.766
 25.688 41.277 25.773 41.688 c 25.855 42.074 25.945 42.477 26.047 42.898
 c 26.184 43.461 26.328 44.02 26.473 44.547 c 26.559 44.863 26.629 45.098
 26.668 45.227 c 26.711 45.398 26.793 45.637 26.922 45.867 c 27.082 46.152
 27.234 46.277 27.34 46.277 c 27.973 46.277 28.457 46.551 28.793 46.98 c
 28.871 46.969 28.945 46.961 29.039 46.949 c 29.543 46.891 30.051 46.859
 30.531 46.859 c 31.488 46.863 32.227 46.996 32.727 47.371 c 32.922 47.516
 33.219 47.645 33.59 47.75 c 33.906 47.84 34.246 47.902 34.594 47.949 c 
34.801 47.973 34.957 47.988 35.039 47.992 c 35.203 48.004 35.305 48.004 
35.383 47.988 c 35.402 47.984 36.062 49.391 35.648 49.465 c 35.43 49.504
 35.211 49.508 35.008 49.492 c 34.848 49.484 34.652 49.469 34.402 49.438
 c 33.992 49.383 33.574 49.305 33.18 49.195 c 32.648 49.043 32.191 48.844
 31.828 48.574 c 31.664 48.449 31.184 48.363 30.523 48.359 c 30.137 48.359
 29.711 48.387 29.289 48.434 c 28.625 48.797 l 25.688 49.367 l 25.742 49.355
 25.629 49.402 25.477 49.48 c 25.215 49.609 24.957 49.766 24.719 49.953 
c 24.184 50.371 23.84 50.859 23.746 51.418 c 23.383 53.551 21.777 54.438
 19.734 54.121 c 19.453 54.074 19.094 53.984 18.523 53.816 c 18.379 53.773
 17.281 53.445 16.93 53.344 c 16.418 53.195 15.973 53.074 15.551 52.969 
c 13.777 52.539 12.566 52.48 12.145 52.797 c 11.914 52.973 11.949 53.098
 12.617 53.629 c 13.367 54.227 14.625 54.91 16.43 55.73 c 17.203 56.082 
17.996 56.375 18.926 56.668 c 19.352 56.801 20.812 57.227 21.109 57.32 c
 22.336 57.707 23.027 58.043 23.48 58.613 c 23.637 58.805 23.773 59.012 
23.898 59.238 c 23.977 59.375 24.047 59.516 24.121 59.68 c 24.16 59.758 
24.281 60.02 24.297 60.062 c 24.574 60.648 24.684 60.75 25.066 60.75 c 25.117
 60.75 25.172 60.746 25.227 60.742 c 25.418 60.73 25.633 60.688 25.906 60.617
 c 26.078 60.57 26.754 60.379 26.793 60.367 c 28.262 59.957 29.504 59.816
 31.234 60.008 c 32.707 60.176 33.648 60.145 34.121 59.977 c 34.316 59.91
 34.316 59.906 34.316 59.797 c 34.316 59.281 34.68 58.676 35.387 57.73 c
 35.477 57.613 35.574 57.492 35.672 57.363 c 35.938 57.023 36.223 56.676
 36.512 56.34 c 36.684 56.141 36.816 55.984 36.895 55.898 c 36.992 55.801
 37.098 55.695 37.234 55.551 c 37.461 55.301 37.691 55.027 37.906 54.738
 c 38.359 54.117 38.672 53.512 38.777 52.988 c 38.801 52.863 38.816 52.742
 38.816 52.633 c 38.816 51.469 39.527 50.75 40.582 50.449 c 41.07 50.312
 41.562 50.277 41.984 50.297 c 42.246 50.156 42.336 49.969 42.336 49.551
 c 42.336 49.043 42.602 48.465 43.32 47.191 c 43.469 46.93 44.086 45.848
 44.227 45.594 c 44.621 44.898 44.945 44.305 45.258 43.707 c 46.844 40.656
 47.789 38.004 47.973 35.504 c 48.023 34.848 48.02 34.211 47.953 33.594 
c 47.891 33.008 48.02 32.352 48.297 31.621 c 48.477 31.137 48.719 30.637
 49.004 30.121 c 49.23 29.727 49.465 29.344 49.707 28.984 c 49.848 28.773
 49.965 28.613 50.031 28.523 c 50.027 28.527 50.086 28.422 50.168 28.273
 c 50.305 28.02 50.438 27.738 50.566 27.434 c 50.879 26.691 51.082 25.957
 51.125 25.293 c 51.141 25.055 51.133 24.828 51.102 24.621 c 50.934 23.406
 51.453 22.348 52.371 21.469 c 52.828 21.031 53.289 20.727 53.609 20.559
 c 53.832 20.473 54.059 20.363 54.277 20.211 c 54.57 20.004 54.711 19.805
 54.711 19.637 c 54.711 19.289 54.727 18.816 54.758 18.242 c 54.77 18.027
 54.785 17.805 54.801 17.57 c 54.816 17.273 54.84 16.973 54.863 16.695 c
 54.875 16.523 54.883 16.398 54.891 16.328 c 54.906 16.02 54.824 15.602 
54.566 15.125 c 54.488 15.137 54.418 15.141 54.332 15.152 c 53.551 15.234
 52.676 15.316 51.723 15.395 c 48.641 15.645 45.527 15.781 42.613 15.742
 c 40.504 15.707 38.473 15.539 35.824 15.23 c 35.484 15.191 33.395 14.938
 32.875 14.883 c 31.934 14.777 31.305 14.727 30.859 14.727 c 30.012 14.727
 29.098 14.633 28.129 14.453 c 26.672 14.184 25.125 13.73 23.551 13.145 
c 22.625 12.801 21.75 12.438 20.945 12.066 c 20.711 11.961 20.504 11.863
 20.312 11.77 c 19.52 11.965 18.746 12.145 18.004 12.305 c 17.961 12.508
 17.984 12.723 18.09 12.996 c h
15.176 4.996 m 12.441 5.109 10.039 5.324 8.062 5.656 c 5.672 6.059 3.969
 6.613 2.859 7.273 c 2.398 7.547 2.078 7.82 1.855 8.086 c 1.902 8.129 1.945
 8.172 2.004 8.215 c 2.668 8.734 3.723 9.059 5.277 9.059 c 7.137 9.059 8.441
 8.887 9.922 8.504 c 10.473 8.359 13.066 7.574 13.938 7.336 c 14.391 7.211
 17.562 6.25 18.203 6.059 c 19.559 5.656 20.879 5.277 22.203 4.918 c 19.832
 4.883 17.453 4.898 15.176 4.996 c h
68.281 6.668 m 66.93 5.902 65.48 5.188 64.027 4.547 c 63.516 4.324 63.047
 4.129 62.621 3.957 c 62.473 3.895 62.355 3.852 62.262 3.816 c 60.172 4.047
 l 59.902 4.078 l 59.672 3.926 l 59.602 3.879 59.461 3.785 59.262 3.672 
c 58.926 3.473 58.559 3.277 58.172 3.094 c 57.809 2.918 57.441 2.766 57.09
 2.641 c 56.16 2.312 55.094 2.137 54.078 2.078 c 52.004 1.961 49.844 1.953
 47.594 2.051 c 41.535 2.316 28.086 5.102 27.773 5.09 c 27.133 5.199 26.645
 5.312 26.152 5.434 c 23.594 6.074 21.18 6.742 18.633 7.5 c 18.016 7.684
 14.809 8.656 14.332 8.785 c 13.488 9.016 10.891 9.801 10.301 9.957 c 8.699
 10.379 7.266 10.562 5.277 10.562 c 3.836 10.562 2.691 10.309 1.809 9.859
 c 1.91 10.023 2.043 10.191 2.207 10.352 c 4.082 12.191 8.723 12.699 16.992
 10.992 c 17.086 10.879 20.086 10.305 21.57 9.914 c 22.699 9.621 23.848 
9.348 25.012 9.098 c 36.547 6.629 48.812 6.488 60.207 7.734 c 61.703 7.898
 63.047 8.07 64.215 8.246 c 64.625 8.309 64.984 8.367 65.293 8.418 c 65.477
 8.449 65.605 8.473 65.672 8.484 c 65.672 8.484 65.719 8.984 65.672 9.227
 c 65.625 9.473 65.402 9.961 65.402 9.961 c 65.344 9.949 65.223 9.93 65.047
 9.898 c 64.746 9.852 64.395 9.793 63.996 9.734 c 62.844 9.562 61.52 9.387
 60.047 9.227 c 59.672 9.184 59.293 9.148 58.91 9.113 c 58.906 9.57 58.859
 9.996 58.766 10.383 c 60.668 10.539 62.551 10.895 64.359 11.41 c 65.215
 11.656 65.992 11.918 66.684 12.18 c 66.82 12.234 66.945 12.281 67.062 12.328
 c 67.441 11.922 l 67.91 11.418 l 68.453 11.84 l 68.512 11.887 68.637 11.977
 68.812 12.098 c 69.105 12.297 69.43 12.496 69.777 12.684 c 70.582 13.113
 71.375 13.402 72.082 13.48 c 72.207 13.492 72.336 13.5 72.461 13.5 c 73.852
 13.5 74.191 13.191 74.191 12.645 c 74.191 10.891 71.98 8.777 68.281 6.668
 c h
68.281 6.668 m f
22.738 17.254 m 22.996 17.301 23.258 17.453 23.609 17.719 c 24.152 18.137
 24.887 18.461 25.77 18.691 c 26.484 18.883 27.254 19.004 28.039 19.066 
c 28.551 19.109 28.984 19.121 29.297 19.113 c 29.445 19.109 29.66 19.098
 29.926 19.09 c 30.16 19.078 30.387 19.074 30.602 19.07 c 31.578 19.047 
31.938 19.059 32.203 19.195 c 33.508 19.879 34.891 19.977 36.141 19.73 c
 36.324 19.691 36.449 19.66 36.527 19.637 c 36.578 19.609 36.641 19.574 
36.723 19.531 c 36.926 19.43 37.141 19.328 37.359 19.23 c 37.543 19.152 
37.719 19.078 37.887 19.016 c 38.438 18.812 38.887 18.715 39.273 18.766 
c 43.547 19.367 47.129 19.012 50.008 18.062 c 50.66 17.848 51.215 17.617
 51.684 17.391 c 51.949 17.258 52.125 17.16 52.199 17.113 c 52.199 17.113
 52.699 17.359 52.812 17.543 c 52.957 17.781 52.98 18.379 52.98 18.379 c
 52.531 18.672 51.684 19.082 50.453 19.488 c 49.648 19.754 48.793 19.973
 47.891 20.145 c 46.562 21.664 40.688 24.754 39.262 24.688 c 38.75 24.664
 38.543 24.672 38.367 24.723 c 38.23 24.762 37.352 25.129 37.199 25.191 
c 36.328 25.535 35.508 25.57 34.809 25.418 c 34.656 25.383 34.535 25.348
 34.461 25.316 c 34.266 25.242 l 34.141 25.074 l 34.168 25.109 34.121 25.074
 33.941 25.004 c 33.531 24.844 32.887 24.742 31.973 24.742 c 31.699 24.742
 l 30.207 24.742 29.684 24.719 28.965 24.578 c 28.109 24.414 27.285 24.09
 26.23 23.5 c 25.152 22.891 23.727 21.422 22.668 19.953 c 22.168 19.258 
21.848 18.699 21.77 18.309 c 21.652 17.715 22.047 17.125 22.738 17.254 c
 h
22.738 17.254 m f
Q Q
showpage
%%Trailer
end restore
%%EOF
