%!PS-Adobe-3.0 EPSF-3.0
%%Creator: cairo 1.14.10 (http://cairographics.org)
%%CreationDate: Sun Jul 16 04:51:22 2017
%%Pages: 1
%%DocumentData: Clean7Bit
%%LanguageLevel: 2
%%BoundingBox: 0 -1 62 72
%%EndComments
%%BeginProlog
save
50 dict begin
/q { gsave } bind def
/Q { grestore } bind def
/cm { 6 array astore concat } bind def
/w { setlinewidth } bind def
/J { setlinecap } bind def
/j { setlinejoin } bind def
/M { setmiterlimit } bind def
/d { setdash } bind def
/m { moveto } bind def
/l { lineto } bind def
/c { curveto } bind def
/h { closepath } bind def
/re { exch dup neg 3 1 roll 5 3 roll moveto 0 rlineto
      0 exch rlineto 0 rlineto closepath } bind def
/S { stroke } bind def
/f { fill } bind def
/f* { eofill } bind def
/n { newpath } bind def
/W { clip } bind def
/W* { eoclip } bind def
/BT { } bind def
/ET { } bind def
/pdfmark where { pop globaldict /?pdfmark /exec load put }
    { globaldict begin /?pdfmark /pop load def /pdfmark
    /cleartomark load def end } ifelse
/BDC { mark 3 1 roll /BDC pdfmark } bind def
/EMC { mark /EMC pdfmark } bind def
/cairo_store_point { /cairo_point_y exch def /cairo_point_x exch def } def
/Tj { show currentpoint cairo_store_point } bind def
/TJ {
  {
    dup
    type /stringtype eq
    { show } { -0.001 mul 0 cairo_font_matrix dtransform rmoveto } ifelse
  } forall
  currentpoint cairo_store_point
} bind def
/cairo_selectfont { cairo_font_matrix aload pop pop pop 0 0 6 array astore
    cairo_font exch selectfont cairo_point_x cairo_point_y moveto } bind def
/Tf { pop /cairo_font exch def /cairo_font_matrix where
      { pop cairo_selectfont } if } bind def
/Td { matrix translate cairo_font_matrix matrix concatmatrix dup
      /cairo_font_matrix exch def dup 4 get exch 5 get cairo_store_point
      /cairo_font where { pop cairo_selectfont } if } bind def
/Tm { 2 copy 8 2 roll 6 array astore /cairo_font_matrix exch def
      cairo_store_point /cairo_font where { pop cairo_selectfont } if } bind def
/g { setgray } bind def
/rg { setrgbcolor } bind def
/d1 { setcachedevice } bind def
/cairo_flush_ascii85_file { cairo_ascii85_file status { cairo_ascii85_file flushfile } if } def
/cairo_image { image cairo_flush_ascii85_file } def
/cairo_imagemask { imagemask cairo_flush_ascii85_file } def
%%EndProlog
%%BeginSetup
%%EndSetup
%%Page: 1 1
%%BeginPageSetup
%%PageBoundingBox: 0 -1 62 72
%%EndPageSetup
q 0 -1 62 73 rectclip q
0 g
31.184 63.548 m 5.379 48.654 l 4.734 48.279 3.914 48.501 3.543 49.146 c
 0.18 54.97 l -0.191 55.611 0.027 56.431 0.672 56.806 c 26.477 71.704 l 
27.121 72.076 27.941 71.853 28.312 71.212 c 31.676 65.388 l 32.047 64.744
 31.828 63.923 31.184 63.548 c h
5.199 51.654 m 28.676 65.204 l 26.656 68.701 l 3.184 55.15 l h
5.199 51.654 m f
48.652 3.497 m 36.168 -3.71 20.148 0.579 12.941 13.064 c 7.797 21.974 8.352
 32.962 14.289 41.298 c 8.207 51.837 l 7.836 52.478 8.055 53.298 8.699 53.673
 c 25.176 63.185 l 25.82 63.556 26.641 63.337 27.012 62.693 c 33.098 52.158
 l 43.289 53.13 53.074 48.115 58.219 39.204 c 65.426 26.72 61.137 10.704
 48.652 3.497 c h
11.207 52.017 m 17.059 41.88 l 17.328 41.412 17.293 40.826 16.961 40.392
 c 11.18 32.837 10.52 22.638 15.273 14.408 c 21.734 3.212 36.105 -0.639 
47.305 5.826 c 58.504 12.29 62.355 26.662 55.891 37.861 c 51.141 46.087 
41.977 50.615 32.543 49.388 c 32.008 49.322 31.48 49.579 31.207 50.052 c
 25.359 60.185 l h
11.207 52.017 m f
45.012 9.802 m 44.379 9.439 43.566 9.642 43.184 10.275 c 42.801 10.904 
43.008 11.736 43.641 12.119 c 49.859 15.88 52.414 21.287 51.234 28.189 c
 51.109 28.919 51.594 29.615 52.332 29.744 c 53.062 29.865 53.762 29.372
 53.883 28.642 c 54.832 23.072 54.07 15.283 45.031 9.814 c 45.027 9.814 
45.02 9.806 45.012 9.802 c h
45.012 9.802 m f
51.84 32.134 m 51.785 32.103 51.727 32.076 51.668 32.052 c 50.98 31.775
 50.191 32.107 49.914 32.794 c 49.457 33.935 49.07 34.626 49.051 34.662 
c 48.691 35.302 48.914 36.119 49.551 36.486 c 49.551 36.486 49.555 36.486
 49.559 36.49 c 50.203 36.857 51.023 36.634 51.391 35.99 c 51.391 35.99 
51.859 35.173 52.414 33.798 c 52.664 33.173 52.41 32.466 51.84 32.134 c 
h
51.84 32.134 m f
Q Q
showpage
%%Trailer
end restore
%%EOF
